{
	"info": {
		"_postman_id": "3734fbee-3ff2-44e1-b7cc-ffa9432c5b6b",
		"name": "Data Management Platform",
		"schema": "https://schema.getpostman.com/json/collection/v2.1.0/collection.json",
		"_exporter_id": "6158972"
	},
	"item": [
		{
			"name": "Documents",
			"item": [
				{
					"name": "Create a record",
					"request": {
						"method": "POST",
						"header": [
							{
								"key": "AccessToken",
								"value": "zEft5RRq71xP36zL25rfQ-3-BU3VlnCi",
								"type": "text"
							}
						],
						"body": {
							"mode": "raw",
							"raw": "{\n    \"name\": \"Adam\",\n    \"age\": 32\n}",
							"options": {
								"raw": {
									"language": "json"
								}
							}
						},
						"url": {
							"raw": "https://diploma-project-352916.lm.r.appspot.com/api/els/index/test/doc",
							"protocol": "https",
							"host": [
								"diploma-project-352916",
								"lm",
								"r",
								"appspot",
								"com"
							],
							"path": [
								"api",
								"els",
								"index",
								"test",
								"doc"
							]
						}
					},
					"response": []
				},
				{
					"name": "Change a field's value",
					"request": {
						"method": "PUT",
						"header": [
							{
								"key": "AccessToken",
								"value": "zEft5RRq71xP36zL25rfQ-3-BU3VlnCi",
								"type": "text"
							}
						],
						"url": {
							"raw": "https://diploma-project-352916.lm.r.appspot.com/api/els/index/test/doc/npzcjoEBKxXdnAjjNzOc?fieldName=age&fieldValue=25",
							"protocol": "https",
							"host": [
								"diploma-project-352916",
								"lm",
								"r",
								"appspot",
								"com"
							],
							"path": [
								"api",
								"els",
								"index",
								"test",
								"doc",
								"npzcjoEBKxXdnAjjNzOc"
							],
							"query": [
								{
									"key": "fieldName",
									"value": "age"
								},
								{
									"key": "fieldValue",
									"value": "25"
								}
							]
						}
					},
					"response": []
				},
				{
					"name": "Retrieve records",
					"request": {
						"method": "POST",
						"header": [
							{
								"key": "AccessToken",
								"value": "zEft5RRq71xP36zL25rfQ-3-BU3VlnCi",
								"type": "text"
							}
						],
						"body": {
							"mode": "raw",
							"raw": "{\n    \"age\": {\n        \"gt\": 15,\n        \"lt\": 35\n    }\n}",
							"options": {
								"raw": {
									"language": "json"
								}
							}
						},
						"url": {
							"raw": "https://diploma-project-352916.lm.r.appspot.com/api/els/index/test",
							"protocol": "https",
							"host": [
								"diploma-project-352916",
								"lm",
								"r",
								"appspot",
								"com"
							],
							"path": [
								"api",
								"els",
								"index",
								"test"
							]
						}
					},
					"response": []
				},
				{
					"name": "Delete a record",
					"request": {
						"method": "DELETE",
						"header": [
							{
								"key": "AccessToken",
								"value": "zEft5RRq71xP36zL25rfQ-3-BU3VlnCi",
								"type": "text"
							}
						],
						"url": {
							"raw": "https://diploma-project-352916.lm.r.appspot.com/api/els/index/test/doc/n5zdjoEBKxXdnAjjyzO5",
							"protocol": "https",
							"host": [
								"diploma-project-352916",
								"lm",
								"r",
								"appspot",
								"com"
							],
							"path": [
								"api",
								"els",
								"index",
								"test",
								"doc",
								"n5zdjoEBKxXdnAjjyzO5"
							]
						}
					},
					"response": []
				}
			]
		},
		{
			"name": "Graph",
			"item": [
				{
					"name": "Create data",
					"request": {
						"method": "POST",
						"header": [
							{
								"key": "AccessToken",
								"value": "wbb4wtguYAo9v7ZYSoNFQEk8n4b14mN8",
								"type": "text"
							}
						],
						"body": {
							"mode": "raw",
							"raw": "{\n    \"query\": \"match (p:Person{name: 'James'}), (m:Movie{name: 'The Matrix'}) \\n CREATE (p)-[a:ACTED_IN]->(m)\"\n}",
							"options": {
								"raw": {
									"language": "json"
								}
							}
						},
						"url": {
							"raw": "https://diploma-project-352916.lm.r.appspot.com/api/neo4j/record",
							"protocol": "https",
							"host": [
								"diploma-project-352916",
								"lm",
								"r",
								"appspot",
								"com"
							],
							"path": [
								"api",
								"neo4j",
								"record"
							]
						}
					},
					"response": []
				},
				{
					"name": "Retrieve data",
					"request": {
						"method": "POST",
						"header": [
							{
								"key": "AccessToken",
								"value": "wbb4wtguYAo9v7ZYSoNFQEk8n4b14mN8",
								"type": "text"
							}
						],
						"body": {
							"mode": "raw",
							"raw": "{\n    \"query\": \"match (p:Person), match (m:Movie) \\n return p\"\n}",
							"options": {
								"raw": {
									"language": "json"
								}
							}
						},
						"url": {
							"raw": "https://diploma-project-352916.lm.r.appspot.com/api/neo4j",
							"protocol": "https",
							"host": [
								"diploma-project-352916",
								"lm",
								"r",
								"appspot",
								"com"
							],
							"path": [
								"api",
								"neo4j"
							]
						}
					},
					"response": []
				},
				{
					"name": "Update data",
					"request": {
						"method": "PUT",
						"header": [
							{
								"key": "AccessToken",
								"value": "wbb4wtguYAo9v7ZYSoNFQEk8n4b14mN8",
								"type": "text"
							}
						],
						"body": {
							"mode": "raw",
							"raw": "{\n    \"query\": \"match (p:Person) \\n where p.born < 1940 \\n set p.status='old' \\n return p\"\n}",
							"options": {
								"raw": {
									"language": "json"
								}
							}
						},
						"url": {
							"raw": "https://diploma-project-352916.lm.r.appspot.com/api/neo4j",
							"protocol": "https",
							"host": [
								"diploma-project-352916",
								"lm",
								"r",
								"appspot",
								"com"
							],
							"path": [
								"api",
								"neo4j"
							]
						}
					},
					"response": []
				},
				{
					"name": "Delete data",
					"request": {
						"method": "DELETE",
						"header": [
							{
								"key": "AccessToken",
								"value": "wbb4wtguYAo9v7ZYSoNFQEk8n4b14mN8",
								"type": "text"
							}
						],
						"body": {
							"mode": "raw",
							"raw": "{\n    \"query\": \"match (p:Person{status: 'old'}) \\n detach delete p\"\n}",
							"options": {
								"raw": {
									"language": "json"
								}
							}
						},
						"url": {
							"raw": "https://diploma-project-352916.lm.r.appspot.com/api/neo4j",
							"protocol": "https",
							"host": [
								"diploma-project-352916",
								"lm",
								"r",
								"appspot",
								"com"
							],
							"path": [
								"api",
								"neo4j"
							]
						}
					},
					"response": []
				}
			]
		}
	]
}